…
The dataset `instacart` has 14 variables. There are variables that are
specific to the items, such as `product_id`, `department`,
`product_name`, and `aisle`. There are also variables that are specific
to the consumer, such as `reordered`, `user_id`,
`days_since_prior_order`, and `order_dow`. This dataset has 131209
unique customers.

``` r
instacart %>% 
    group_by(aisle) %>% 
    summarise(aisle_count = n()) %>% 
    arrange(desc(aisle_count))
```

    ## # A tibble: 134 x 2
    ##    aisle                         aisle_count
    ##    <chr>                               <int>
    ##  1 fresh vegetables                   150609
    ##  2 fresh fruits                       150473
    ##  3 packaged vegetables fruits          78493
    ##  4 yogurt                              55240
    ##  5 packaged cheese                     41699
    ##  6 water seltzer sparkling water       36617
    ##  7 milk                                32644
    ##  8 chips pretzels                      31269
    ##  9 soy lactosefree                     26240
    ## 10 bread                               23635
    ## # … with 124 more rows
…
tidy_accel
```

    ## # A tibble: 50,400 x 6
    ##     week day_id day    activity    activity_count day_type
    ##    <dbl>  <dbl> <fct>  <chr>                <dbl> <chr>   
    ##  1     1      1 Friday activity.1            88.4 weekday 
    ##  2     1      1 Friday activity.2            82.2 weekday 
    ##  3     1      1 Friday activity.3            64.4 weekday 
    ##  4     1      1 Friday activity.4            70.0 weekday 
    ##  5     1      1 Friday activity.5            75.0 weekday 
    ##  6     1      1 Friday activity.6            66.3 weekday 
    ##  7     1      1 Friday activity.7            53.8 weekday 
    ##  8     1      1 Friday activity.8            47.8 weekday 
    ##  9     1      1 Friday activity.9            55.5 weekday 
    ## 10     1      1 Friday activity.10           43.0 weekday 
    ## # … with 50,390 more rows
…
